module gitlab.com/parikshaoss/zoom-lib-golang

go 1.15

require (
	github.com/dgrijalva/jwt-go v3.2.0+incompatible // indirect
	github.com/google/go-querystring v1.1.0
	gopkg.in/dgrijalva/jwt-go.v3 v3.2.0
)
